…
我们将尝试假设检验。在这里，提出一个假设，使其可以在观察通过一组随机变量建模的过程的基础上进行测试。通常，比较两个统计数据集，或者将通过采样获得的数据集与来自理想化模型的合成数据集进行比较。

```py
mtcars %>%
  specify(response = mpg) %>% # formula alt: mpg ~ NULL
  hypothesize(null = "point", med = 26) %>% 
  generate(reps = 100, type = "bootstrap") %>% 
  calculate(stat = "median")
```

在这里，我们首先指定响应变量和解释变量，然后声明一个零假设。之后，我们使用自助法生成重采样，最后计算中位数。该代码的结果是：

```py
## # A tibble: 100 x 2
##    replicate  stat
##        <int> <dbl>
##  1         1  26.6
##  2         2  25.1
##  3         3  25.2
##  4         4  24.7
##  5         5  24.6
##  6         6  25.8
##  7         7  24.7
##  8         8  25.6
##  9         9  25.0
## 10        10  25.1
## # ... with 90 more rows
```
…
