…
con.sql(q).show()
```

你将看到类似于下表的输出。

```py
┌─────────────────────────────────────┬───────────────────────┐
│              job_title              │ average_salary_in_usd │
│               varchar               │        double         │
├─────────────────────────────────────┼───────────────────────┤
│ 3D Computer Vision Researcher       │              21352.25 │
│ AI Developer                        │     136666.0909090909 │
│ AI Programmer                       │               55000.0 │
│ AI Scientist                        │            110120.875 │
│ Analytics Engineer                  │    152368.63106796116 │
│ Applied Data Scientist              │              113726.3 │
│ Applied Machine Learning Engineer   │               99875.5 │
│ Applied Machine Learning Scientist  │    109452.83333333333 │
│ Applied Scientist                   │     190264.4827586207 │
│ Autonomous Vehicle Technician       │               26277.5 │
│            ·                        │                  ·    │
│            ·                        │                  ·    │
│            ·                        │                  ·    │
│ Principal Data Engineer             │              192500.0 │
│ Principal Data Scientist            │            198171.125 │
│ Principal Machine Learning Engineer │              190000.0 │
│ Product Data Analyst                │               56497.2 │
│ Product Data Scientist              │                8000.0 │
│ Research Engineer                   │    163108.37837837837 │
│ Research Scientist                  │    161214.19512195123 │
│ Software Data Engineer              │               62510.0 │
│ Staff Data Analyst                  │               15000.0 │
│ Staff Data Scientist                │              105000.0 │
├─────────────────────────────────────┴───────────────────────┤
│ 93 rows (20 shown)                                2 columns │
└─────────────────────────────────────────────────────────────┘
```
…
